<?xml version="1.0" encoding="UTF-8"?>
<OAI-PMH xmlns="http://www.openarchives.org/OAI/2.0/" xmlns:xsi="http://www.w3.org/2001/XMLSchema-instance" xsi:schemaLocation="http://www.openarchives.org/OAI/2.0/ http://www.openarchives.org/OAI/2.0/OAI-PMH.xsd">
<responseDate>2004-12-29T13:19:27Z</responseDate>
<request verb="ListRecords" metadataPrefix="oai_dc">http://repository.tudelft.nl/oai</request>
<ListRecords>
<record>
<header>
<identifier>oai:tudelft.nl:107087</identifier>
<datestamp>2003-12-19T12:45:41Z</datestamp>
</header>
<metadata>
<oai_dc:dc xmlns:oai_dc="http://www.openarchives.org/OAI/2.0/oai_dc/" xmlns:dc="http://purl.org/dc/elements/1.1/" xmlns:xsi="http://www.w3.org/2001/XMLSchema-instance" xsi:schemaLocation="http://www.openarchives.org/OAI/2.0/oai_dc/ http://www.openarchives.org/OAI/2.0/oai_dc.xsd">
<dc:title>Semi-analytical long-arc satellite orbit computation and the estimation of time-varying gravity parameters</dc:title>
<dc:creator>Bruinsma, S.L.</dc:creator>
<dc:subject>orbit computation</dc:subject>
<dc:subject>perturbation modelling</dc:subject>
<dc:subject>parameter estimation</dc:subject>
<dc:description>Abstract not available.</dc:description>
<dc:publisher>Delft University Press</dc:publisher>
<dc:contributor>Wakker, K.F., prof. ir. (promotor)</dc:contributor>
<dc:date>2003-01-21</dc:date>
<dc:type>Dissertation</dc:type>
<dc:type>Reviewed</dc:type>
<dc:type>Final</dc:type>
<dc:format>application/pdf, http://content.library.tudelft.nl/intradoc-cgi/nph-idc_cgi.exe/ae_bruinsma_20030121.pdf?IdcService=GET_FILE&amp;dID=8802&amp;dDocName=007087</dc:format>
<dc:format>15728635 bytes</dc:format>
<dc:identifier>http://content.library.tudelft.nl/intradoc-cgi/nph-idc_cgi.exe/ae_bruinsma_20030121.pdf?IdcService=GET_FILE&amp;dID=8802&amp;dDocName=007087</dc:identifier>
<dc:identifier>ISBN 90-407-2370-2</dc:identifier>
<dc:language>en</dc:language>
<dc:rights>(c) 2003 S.L. Bruinsma</dc:rights>
</oai_dc:dc>
</metadata>
</record>
<record>
<header>
<identifier>oai:tudelft.nl:107192</identifier>
<datestamp>2003-12-19T12:42:47Z</datestamp>
</header>
<metadata>
<oai_dc:dc xmlns:oai_dc="http://www.openarchives.org/OAI/2.0/oai_dc/" xmlns:dc="http://purl.org/dc/elements/1.1/" xmlns:xsi="http://www.w3.org/2001/XMLSchema-instance" xsi:schemaLocation="http://www.openarchives.org/OAI/2.0/oai_dc/ http://www.openarchives.org/OAI/2.0/oai_dc.xsd">
<dc:title>Automation in Architectural Photogrammetry: Line-Photogrammetry for the Reconstruction from Single and Multiple Images</dc:title>
<dc:creator>Van den Heuvel, F.A.</dc:creator>
<dc:subject>photogrammetry</dc:subject>
<dc:subject>close-range</dc:subject>
<dc:subject>computer vision</dc:subject>
<dc:subject>architecture</dc:subject>
<dc:subject>camera calibration</dc:subject>
<dc:subject>image orientation</dc:subject>
<dc:subject>object reconstruction</dc:subject>
<dc:description>Architectural photogrammetry has been practised for more than a century for the documentation of cultural heritage. Nowadays, the emphasis is on the construction of computer models for virtual reality applications. Since the introduction of the computer, and later the digital camera, research in photogrammetry aims at automation. This thesis reports on research on automation in architectural photogrammetry for efficient reconstruction of detailed building models from one or more, possibly widely separated, digital close-range images. This research lies on the fringes of photogrammetry and computer vision. It treats topics frequently studied in computer vision in a photogrammetric way and offers new solutions. Examples cover interior orientation and reconstruction from a single mage, vanishing point detection, and the wide-baseline stereo problem. A semi-automatic approach is chosen that exploits knowledge of the object shape, such as planarity of facades, rectangular and repeating structures in the building, and shape symmetries. Automatically or manually extracted straight image line features are the main observations in the line-photogrammetric approaches presented in this thesis. Furthermore, the methods developed are characterised by the use of robust direct solutions for approximate value computation, followed by least-squares adjustment in which the knowledge of the shape of the building is processed together with the image line observations. This integral adjustment provides optimal estimates for the object model parameters and facilitates quality assessment.</dc:description>
<dc:publisher>NCG, Netherlands Geodetic Commission, Delft</dc:publisher>
<dc:contributor>Vosselman, M.G., prof.dr.ir. (promotor)</dc:contributor>
<dc:date>2003-09-15</dc:date>
<dc:type>Dissertation</dc:type>
<dc:type>Reviewed</dc:type>
<dc:type>Final</dc:type>
<dc:format>application/pdf, http://content.library.tudelft.nl/intradoc-cgi/nph-idc_cgi.exe/ae_heuvel_20030915.pdf?IdcService=GET_FILE&amp;dID=8800&amp;dDocName=007192</dc:format>
<dc:format>20129050 bytes</dc:format>
<dc:identifier>http://content.library.tudelft.nl/intradoc-cgi/nph-idc_cgi.exe/ae_heuvel_20030915.pdf?IdcService=GET_FILE&amp;dID=8800&amp;dDocName=007192</dc:identifier>
<dc:identifier>ISBN 90-6132-281-2</dc:identifier>
<dc:language>en</dc:language>
<dc:rights>(c) 2003 F.A. van den Heuvel</dc:rights>
</oai_dc:dc>
</metadata>
</record>
<record>
<header>
<identifier>oai:tudelft.nl:107193</identifier>
<datestamp>2003-12-19T12:39:11Z</datestamp>
</header>
<metadata>
<oai_dc:dc xmlns:oai_dc="http://www.openarchives.org/OAI/2.0/oai_dc/" xmlns:dc="http://purl.org/dc/elements/1.1/" xmlns:xsi="http://www.w3.org/2001/XMLSchema-instance" xsi:schemaLocation="http://www.openarchives.org/OAI/2.0/oai_dc/ http://www.openarchives.org/OAI/2.0/oai_dc.xsd">
<dc:title>Statistiscal Experimental Design for Quantitative Atomic Resolution Transmission Electron Microscopy</dc:title>
<dc:creator>Van Aert, S.</dc:creator>
<dc:subject>quantitative electron microscopy</dc:subject>
<dc:subject>statistical experimental design</dc:subject>
<dc:subject>parameter estimation</dc:subject>
<dc:description>Statistical experimental design is applied to set up quantitative atomic resolution transmission electron microscopy experiments. In such experiments, observations of the atomic structure of the object under study are always subject to spontaneous fluctuations. As a result of these fluctuations, the precision with which structure parameters can be measured is limited. The purpose of the proposed statistical experimental design is to find the experimental settings resulting into the highest attainable precision.</dc:description>
<dc:publisher>Ponsen &amp; Looijen</dc:publisher>
<dc:contributor>Van den Bos, A., prof. dr. ir. (promotor)</dc:contributor>
<dc:contributor>Van Dyck, D., prof. dr. (promotor)</dc:contributor>
<dc:date>2003-05-20</dc:date>
<dc:type>Dissertation</dc:type>
<dc:type>Reviewed</dc:type>
<dc:type>Final</dc:type>
<dc:format>application/pdf, http://content.library.tudelft.nl/intradoc-cgi/nph-idc_cgi.exe/as_aert_20030520.pdf?IdcService=GET_FILE&amp;dID=8799&amp;dDocName=007193</dc:format>
<dc:format>4710742 bytes</dc:format>
<dc:identifier>http://content.library.tudelft.nl/intradoc-cgi/nph-idc_cgi.exe/as_aert_20030520.pdf?IdcService=GET_FILE&amp;dID=8799&amp;dDocName=007193</dc:identifier>
<dc:identifier>ISBN 90-6464-861-1</dc:identifier>
<dc:language>en</dc:language>
<dc:rights>(c) 2003 S. Van Aert</dc:rights>
</oai_dc:dc>
</metadata>
</record>
<resumptionToken cursor="0" completeListSize="113">
</resumptionToken>
</ListRecords>
</OAI-PMH>